BIS 15L Midterm 2
…
Life Expectancy

(2 points) Lets limit the data to the past 100 years (1920-2020). For these years, which country has the highest life expectancy? How about the lowest life expectancy?

Highest

life_expectancy_long %>% 
  filter(between(year, 1920, 2020)) %>% 
  group_by(country) %>% 
  summarize(mean_life_expectancy=mean(life_expectancy)) %>% 
  arrange(desc(mean_life_expectancy))

## # A tibble: 187 x 2
##    country        mean_life_expectancy
##    <fct>                         <dbl>
##  1 Sweden                         73.5
##  2 Norway                         73.2
##  3 Netherlands                    73.0
##  4 Iceland                        72.9
##  5 Australia                      72.7
##  6 Switzerland                    72.7
##  7 Denmark                        71.9
##  8 Canada                         71.8
##  9 New Zealand                    71.4
## 10 United Kingdom                 71.1
## #  with 177 more rows

Lowest

life_expectancy_long %>% 
  filter(between(year, 1920, 2020)) %>% 
  group_by(country) %>% 
  summarize(mean_life_expectancy=mean(life_expectancy)) %>% 
  arrange(mean_life_expectancy)

## # A tibble: 187 x 2
##    country                  mean_life_expectancy
##    <fct>                                   <dbl>
##  1 Central African Republic                 41.8
##  2 Mali                                     41.8
##  3 Ethiopia                                 42.6
##  4 Sierra Leone                             42.6
##  5 Guinea-Bissau                            42.6
##  6 Burundi                                  42.8
##  7 Malawi                                   42.8
##  8 Uganda                                   43.3
##  9 Eritrea                                  43.4
## 10 Yemen                                    43.6
## #  with 177 more rows
…
population_100 <- 
  population_long %>% 
  filter(between(year, 1920, 2020))

income_100 <- 
  income_long %>% 
  filter(between(year, 1920, 2020))

gapminder_join <- inner_join(life_expectancy_100, population_100, by= c("country", "year"))
gapminder_join <- inner_join(gapminder_join, income_100, by= c("country", "year"))
gapminder_join

## # A tibble: 18,887 x 5
##    country     year  life_expectancy population income
##    <fct>       <chr>           <dbl>      <dbl>  <dbl>
##  1 Afghanistan 1920             30.6   10600000   1490
##  2 Afghanistan 1921             30.7   10500000   1520
##  3 Afghanistan 1922             30.8   10300000   1550
##  4 Afghanistan 1923             30.8    9710000   1570
##  5 Afghanistan 1924             30.9    9200000   1600
##  6 Afghanistan 1925             31      8720000   1630
##  7 Afghanistan 1926             31      8260000   1650
##  8 Afghanistan 1927             31.1    7830000   1680
##  9 Afghanistan 1928             31.1    7420000   1710
## 10 Afghanistan 1929             31.2    7100000   1740
## #  with 18,877 more rows
…
