…
ggsave(filename = "map.svg", device = "svg", plot = uso_map, height = 5, width = 7)
```

## Practice
1. Make a new new column that labels each specimen as occurring in a cave or on the surface. The word "Cave" is part of the locality information.

```r
spiders2 <- spiders %>% 
     mutate(locality_cave = if_else(str_detect(locality, "Cave"), "troglo", "epig"))
spiders2
```

```
## # A tibble: 269 × 12
##    access…¹ family genus country state county local…² date       colle…³ latit…⁴
##       <dbl> <chr>  <chr> <chr>   <chr> <chr>  <chr>   <date>     <chr>     <dbl>
##  1  9038521 Telem… Usof… USA     Cali… Alame… Berkel… 2019-03-02 LM Smi…    37.9
##  2  9038522 Telem… Usof… USA     Cali… Alame… Castro… 2019-03-24 WM Pea…    37.7
##  3  9038523 Telem… Usof… USA     Cali… Alame… Niles,… 2019-01-02 V Roth     37.6
##  4  9038524 Telem… Usof… USA     Cali… Alame… Oakland 2019-02-18 WG Ben…    37.8
##  5  9038525 Telem… Usof… USA     Cali… Alame… Oakland 2019-01-25 R Schu…    37.8
##  6  9038526 Telem… Usof… USA     Cali… Alame… Oakland 2019-02-18 WC Ben…    37.8
##  7  9038527 Telem… Usof… USA     Cali… Alame… Oakland 2019-12-10 J Helf…    37.8
##  8 90386281 Telem… Usof… USA     Cali… Alame… Oaklan… 2019-10-17 Roth, …    37.8
##  9  9038529 Telem… Usof… USA     Cali… Alame… Oaklan… 2019-10-17 Roth, …    37.8
## 10 90387441 Telem… Usof… USA     Cali… Alame… Berkel… 2019-02-17 PR Cra…    37.9
## # … with 259 more rows, 2 more variables: longitude <dbl>, locality_cave <chr>,
## #   and abbreviated variable names ¹​accession, ²​locality, ³​collector, ⁴​latitude
```
…
