…
```r
amniota_tidy %>% 
  select(genus, species, female_maturity_d) %>% 
  mutate(female_maturity_d2=ifelse(female_maturity_d<0, NA, female_maturity_d))%>% 
  arrange(female_maturity_d2)
```

```
## # A tibble: 21,322 x 4
##    genus        species       female_maturity_d female_maturity_d2
##    <chr>        <chr>                     <dbl>              <dbl>
##  1 Microtus     californicus               23.8               23.8
##  2 Lemmus       lemmus                     24                 24  
##  3 Microtus     canicaudus                 24.9               24.9
##  4 Microtus     montanus                   24.9               24.9
##  5 Eolagurus    luteus                     27.2               27.2
##  6 Oligoryzomys destructor                 27.7               27.7
##  7 Oligoryzomys longicaudatus              27.7               27.7
##  8 Oligoryzomys magellanicus               27.7               27.7
##  9 Akodon       molinae                    28.1               28.1
## 10 Ototylomys   phyllotis                  28.2               28.2
## # ... with 21,312 more rows
```

**6. Use the package `naniar` to produce a summary, including percentages, of missing data in each column for the `amniota` data.**  

```r
naniar::miss_var_summary(amniota_tidy) #how many NAs with percentages
```

```
## # A tibble: 36 x 3
##    variable                       n_miss pct_miss
##    <chr>                           <int>    <dbl>
##  1 subspecies                      21322    100  
##  2 female_body_mass_at_maturity_g  21318    100. 
##  3 female_svl_at_maturity_cm       21120     99.1
##  4 fledging_mass_g                 21111     99.0
##  5 male_svl_cm                     21040     98.7
##  6 no_sex_maturity_d               20860     97.8
##  7 egg_width_mm                    20727     97.2
##  8 egg_length_mm                   20702     97.1
##  9 weaning_weight_g                20258     95.0
## 10 female_svl_cm                   20242     94.9
## # ... with 26 more rows
```

**7. Use the package `naniar` to produce a summary, including percentages, of missing data in each column for the `amphibio` data.**

```r
naniar::miss_var_summary(amphibio)
```

```
## # A tibble: 38 x 3
##    variable n_miss pct_miss
##    <chr>     <int>    <dbl>
##  1 obs        6776    100  
##  2 fruits     6774    100. 
##  3 flowers    6772     99.9
##  4 seeds      6772     99.9
##  5 leaves     6752     99.6
##  6 dry_cold   6735     99.4
##  7 vert       6657     98.2
##  8 wet_cold   6625     97.8
##  9 crepu      6608     97.5
## 10 dry_warm   6572     97.0
## # ... with 28 more rows
```
…
